^C:\USERS\HAROL\GOOGLE DRIVE\DEVELOPMENT\UNI\CGLABS\ASSIGNMENT1\ASSIGNMENT1\MAIN.CPP
C:\USERS\HAROL\GOOGLE DRIVE\DEVELOPMENT\UNI\CGASSIGNMENT\PART1\DEBUG\VC141.PDB
C:\USERS\HAROL\GOOGLE DRIVE\DEVELOPMENT\UNI\CGASSIGNMENT\PART1\DEBUG\VC141.IDB
C:\USERS\HAROL\GOOGLE DRIVE\DEVELOPMENT\UNI\CGASSIGNMENT\PART1\DEBUG\MAIN.OBJ
^C:\USERS\HAROL\GOOGLE DRIVE\DEVELOPMENT\UNI\CGASSIGNMENT\PART1\MAIN.CPP
C:\USERS\HAROL\GOOGLE DRIVE\DEVELOPMENT\UNI\CGASSIGNMENT\PART1\DEBUG\VC141.PDB
C:\USERS\HAROL\GOOGLE DRIVE\DEVELOPMENT\UNI\CGASSIGNMENT\PART1\DEBUG\VC141.IDB
C:\USERS\HAROL\GOOGLE DRIVE\DEVELOPMENT\UNI\CGASSIGNMENT\PART1\DEBUG\MAIN.OBJ
^C:\USERS\HAROL\GOOGLE DRIVE\DEVELOPMENT\UNI\CGASSIGNMENT\PART1\MAIN_NATHAN.CPP
C:\USERS\HAROL\GOOGLE DRIVE\DEVELOPMENT\UNI\CGASSIGNMENT\PART1\DEBUG\VC141.PDB
C:\USERS\HAROL\GOOGLE DRIVE\DEVELOPMENT\UNI\CGASSIGNMENT\PART1\DEBUG\VC141.IDB
C:\USERS\HAROL\GOOGLE DRIVE\DEVELOPMENT\UNI\CGASSIGNMENT\PART1\DEBUG\MAIN_NATHAN.OBJ
